{
    "tracks": {
        "href": "https://api.spotify.com/v1/search?query=knebel&type=track&offset=0&limit=3",
        "items": [
            {
                "album": {
                    "album_type": "single",
                    "artists": [
                        {
                            "external_urls": {
                                "spotify": "https://open.spotify.com/artist/65A714FqhSPjoFZeffQbTv"
                            },
                            "href": "https://api.spotify.com/v1/artists/65A714FqhSPjoFZeffQbTv",
                            "id": "65A714FqhSPjoFZeffQbTv",
                            "name": "Lindemann",
                            "type": "artist",
                            "uri": "spotify:artist:65A714FqhSPjoFZeffQbTv"
                        }
                    ],
                    "available_markets": [
                        "AD",
                        "AE",
                        "AR",
                        "AT",
                        "AU",
                        "BE",
                        "BG",
                        "BH",
                        "BO",
                        "BR",
                        "CA",
                        "CH",
                        "CL",
                        "CO",
                        "CR",
                        "CY",
                        "CZ",
                        "DE",
                        "DK",
                        "DO",
                        "DZ",
                        "EC",
                        "EE",
                        "EG",
                        "ES",
                        "FI",
                        "FR",
                        "GB",
                        "GR",
                        "GT",
                        "HK",
                        "HN",
                        "HU",
                        "ID",
                        "IE",
                        "IL",
                        "IN",
                        "IS",
                        "IT",
                        "JO",
                        "JP",
                        "KW",
                        "LB",
                        "LI",
                        "LT",
                        "LU",
                        "LV",
                        "MA",
                        "MC",
                        "MT",
                        "MX",
                        "MY",
                        "NI",
                        "NL",
                        "NO",
                        "NZ",
                        "OM",
                        "PA",
                        "PE",
                        "PH",
                        "PL",
                        "PS",
                        "PT",
                        "PY",
                        "QA",
                        "RO",
                        "SA",
                        "SE",
                        "SG",
                        "SK",
                        "SV",
                        "TH",
                        "TN",
                        "TR",
                        "TW",
                        "US",
                        "UY",
                        "VN",
                        "ZA"
                    ],
                    "external_urls": {
                        "spotify": "https://open.spotify.com/album/22SXNdFqAgfm6oj5eCasyy"
                    },
                    "href": "https://api.spotify.com/v1/albums/22SXNdFqAgfm6oj5eCasyy",
                    "id": "22SXNdFqAgfm6oj5eCasyy",
                    "images": [
                        {
                            "height": 640,
                            "url": "https://i.scdn.co/image/b425732f4ad7e79f15a77f150132d26a9cab32e7",
                            "width": 640
                        },
                        {
                            "height": 300,
                            "url": "https://i.scdn.co/image/4b7a6bd76fc65b2adfcdb840819e148efa446b0d",
                            "width": 300
                        },
                        {
                            "height": 64,
                            "url": "https://i.scdn.co/image/af4c47eb2605535baa705cee6d5a7d440180741d",
                            "width": 64
                        }
                    ],
                    "name": "Knebel",
                    "release_date": "2019-11-01",
                    "release_date_precision": "day",
                    "total_tracks": 1,
                    "type": "album",
                    "uri": "spotify:album:22SXNdFqAgfm6oj5eCasyy"
                },
                "artists": [
                    {
                        "external_urls": {
                            "spotify": "https://open.spotify.com/artist/65A714FqhSPjoFZeffQbTv"
                        },
                        "href": "https://api.spotify.com/v1/artists/65A714FqhSPjoFZeffQbTv",
                        "id": "65A714FqhSPjoFZeffQbTv",
                        "name": "Lindemann",
                        "type": "artist",
                        "uri": "spotify:artist:65A714FqhSPjoFZeffQbTv"
                    }
                ],
                "available_markets": [
                    "AD",
                    "AE",
                    "AR",
                    "AT",
                    "AU",
                    "BE",
                    "BG",
                    "BH",
                    "BO",
                    "BR",
                    "CA",
                    "CH",
                    "CL",
                    "CO",
                    "CR",
                    "CY",
                    "CZ",
                    "DE",
                    "DK",
                    "DO",
                    "DZ",
                    "EC",
                    "EE",
                    "EG",
                    "ES",
                    "FI",
                    "FR",
                    "GB",
                    "GR",
                    "GT",
                    "HK",
                    "HN",
                    "HU",
                    "ID",
                    "IE",
                    "IL",
                    "IN",
                    "IS",
                    "IT",
                    "JO",
                    "JP",
                    "KW",
                    "LB",
                    "LI",
                    "LT",
                    "LU",
                    "LV",
                    "MA",
                    "MC",
                    "MT",
                    "MX",
                    "MY",
                    "NI",
                    "NL",
                    "NO",
                    "NZ",
                    "OM",
                    "PA",
                    "PE",
                    "PH",
                    "PL",
                    "PS",
                    "PT",
                    "PY",
                    "QA",
                    "RO",
                    "SA",
                    "SE",
                    "SG",
                    "SK",
                    "SV",
                    "TH",
                    "TN",
                    "TR",
                    "TW",
                    "US",
                    "UY",
                    "VN",
                    "ZA"
                ],
                "disc_number": 1,
                "duration_ms": 230078,
                "explicit": false,
                "external_ids": {
                    "isrc": "DEUM71904934"
                },
                "external_urls": {
                    "spotify": "https://open.spotify.com/track/00vhlwuuzdaNU9RhvtNX3r"
                },
                "href": "https://api.spotify.com/v1/tracks/00vhlwuuzdaNU9RhvtNX3r",
                "id": "00vhlwuuzdaNU9RhvtNX3r",
                "is_local": false,
                "name": "Knebel",
                "popularity": 62,
                "preview_url": null,
                "track_number": 1,
                "type": "track",
                "uri": "spotify:track:00vhlwuuzdaNU9RhvtNX3r"
            },
            {
                "album": {
                    "album_type": "album",
                    "artists": [
                        {
                            "external_urls": {
                                "spotify": "https://open.spotify.com/artist/6QfFTZJHFSe9Xyes6DkAli"
                            },
                            "href": "https://api.spotify.com/v1/artists/6QfFTZJHFSe9Xyes6DkAli",
                            "id": "6QfFTZJHFSe9Xyes6DkAli",
                            "name": "Reto",
                            "type": "artist",
                            "uri": "spotify:artist:6QfFTZJHFSe9Xyes6DkAli"
                        }
                    ],
                    "available_markets": [
                        "AD",
                        "AE",
                        "AR",
                        "AT",
                        "AU",
                        "BE",
                        "BG",
                        "BH",
                        "BO",
                        "BR",
                        "CA",
                        "CH",
                        "CL",
                        "CO",
                        "CR",
                        "CY",
                        "CZ",
                        "DE",
                        "DK",
                        "DO",
                        "DZ",
                        "EC",
                        "EE",
                        "EG",
                        "ES",
                        "FI",
                        "FR",
                        "GB",
                        "GR",
                        "GT",
                        "HK",
                        "HN",
                        "HU",
                        "ID",
                        "IE",
                        "IL",
                        "IN",
                        "IS",
                        "IT",
                        "JO",
                        "JP",
                        "KW",
                        "LB",
                        "LI",
                        "LT",
                        "LU",
                        "LV",
                        "MA",
                        "MC",
                        "MT",
                        "MX",
                        "MY",
                        "NI",
                        "NL",
                        "NO",
                        "NZ",
                        "OM",
                        "PA",
                        "PE",
                        "PH",
                        "PL",
                        "PS",
                        "PT",
                        "PY",
                        "QA",
                        "RO",
                        "SA",
                        "SE",
                        "SG",
                        "SK",
                        "SV",
                        "TH",
                        "TN",
                        "TR",
                        "TW",
                        "US",
                        "UY",
                        "VN",
                        "ZA"
                    ],
                    "external_urls": {
                        "spotify": "https://open.spotify.com/album/5UyDHSDUXYqHDFPu77h1Wm"
                    },
                    "href": "https://api.spotify.com/v1/albums/5UyDHSDUXYqHDFPu77h1Wm",
                    "id": "5UyDHSDUXYqHDFPu77h1Wm",
                    "images": [
                        {
                            "height": 640,
                            "url": "https://i.scdn.co/image/ab67616d0000b273f954b9d46cdeec9ec70285e7",
                            "width": 640
                        },
                        {
                            "height": 300,
                            "url": "https://i.scdn.co/image/ab67616d00001e02f954b9d46cdeec9ec70285e7",
                            "width": 300
                        },
                        {
                            "height": 64,
                            "url": "https://i.scdn.co/image/ab67616d00004851f954b9d46cdeec9ec70285e7",
                            "width": 64
                        }
                    ],
                    "name": "BOA",
                    "release_date": "2018-06-29",
                    "release_date_precision": "day",
                    "total_tracks": 15,
                    "type": "album",
                    "uri": "spotify:album:5UyDHSDUXYqHDFPu77h1Wm"
                },
                "artists": [
                    {
                        "external_urls": {
                            "spotify": "https://open.spotify.com/artist/6QfFTZJHFSe9Xyes6DkAli"
                        },
                        "href": "https://api.spotify.com/v1/artists/6QfFTZJHFSe9Xyes6DkAli",
                        "id": "6QfFTZJHFSe9Xyes6DkAli",
                        "name": "Reto",
                        "type": "artist",
                        "uri": "spotify:artist:6QfFTZJHFSe9Xyes6DkAli"
                    },
                    {
                        "external_urls": {
                            "spotify": "https://open.spotify.com/artist/4GrNwBMqQuyaLc5JQi1b3d"
                        },
                        "href": "https://api.spotify.com/v1/artists/4GrNwBMqQuyaLc5JQi1b3d",
                        "id": "4GrNwBMqQuyaLc5JQi1b3d",
                        "name": "Jano PW",
                        "type": "artist",
                        "uri": "spotify:artist:4GrNwBMqQuyaLc5JQi1b3d"
                    }
                ],
                "available_markets": [
                    "AD",
                    "AE",
                    "AR",
                    "AT",
                    "AU",
                    "BE",
                    "BG",
                    "BH",
                    "BO",
                    "BR",
                    "CA",
                    "CH",
                    "CL",
                    "CO",
                    "CR",
                    "CY",
                    "CZ",
                    "DE",
                    "DK",
                    "DO",
                    "DZ",
                    "EC",
                    "EE",
                    "EG",
                    "ES",
                    "FI",
                    "FR",
                    "GB",
                    "GR",
                    "GT",
                    "HK",
                    "HN",
                    "HU",
                    "ID",
                    "IE",
                    "IL",
                    "IN",
                    "IS",
                    "IT",
                    "JO",
                    "JP",
                    "KW",
                    "LB",
                    "LI",
                    "LT",
                    "LU",
                    "LV",
                    "MA",
                    "MC",
                    "MT",
                    "MX",
                    "MY",
                    "NI",
                    "NL",
                    "NO",
                    "NZ",
                    "OM",
                    "PA",
                    "PE",
                    "PH",
                    "PL",
                    "PS",
                    "PT",
                    "PY",
                    "QA",
                    "RO",
                    "SA",
                    "SE",
                    "SG",
                    "SK",
                    "SV",
                    "TH",
                    "TN",
                    "TR",
                    "TW",
                    "US",
                    "UY",
                    "VN",
                    "ZA"
                ],
                "disc_number": 1,
                "duration_ms": 188386,
                "explicit": true,
                "external_ids": {
                    "isrc": "PLS431800026"
                },
                "external_urls": {
                    "spotify": "https://open.spotify.com/track/5rOtxtGw83WRmN0aklgsB9"
                },
                "href": "https://api.spotify.com/v1/tracks/5rOtxtGw83WRmN0aklgsB9",
                "id": "5rOtxtGw83WRmN0aklgsB9",
                "is_local": false,
                "name": "Knebel",
                "popularity": 40,
                "preview_url": "https://p.scdn.co/mp3-preview/2cf42aba951c6bc6544cf3db40142a0f71cbaec6?cid=774b29d4f13844c495f206cafdad9c86",
                "track_number": 14,
                "type": "track",
                "uri": "spotify:track:5rOtxtGw83WRmN0aklgsB9"
            },
            {
                "album": {
                    "album_type": "album",
                    "artists": [
                        {
                            "external_urls": {
                                "spotify": "https://open.spotify.com/artist/6Q3IpVIKPrwZt2kYfjtKNz"
                            },
                            "href": "https://api.spotify.com/v1/artists/6Q3IpVIKPrwZt2kYfjtKNz",
                            "id": "6Q3IpVIKPrwZt2kYfjtKNz",
                            "name": "Vocal Concert Dresden",
                            "type": "artist",
                            "uri": "spotify:artist:6Q3IpVIKPrwZt2kYfjtKNz"
                        },
                        {
                            "external_urls": {
                                "spotify": "https://open.spotify.com/artist/1DwDktij3whjxkVPnGc4U0"
                            },
                            "href": "https://api.spotify.com/v1/artists/1DwDktij3whjxkVPnGc4U0",
                            "id": "1DwDktij3whjxkVPnGc4U0",
                            "name": "Peter Kopp",
                            "type": "artist",
                            "uri": "spotify:artist:1DwDktij3whjxkVPnGc4U0"
                        },
                        {
                            "external_urls": {
                                "spotify": "https://open.spotify.com/artist/0tFezp1okTl2MJvg8IFW22"
                            },
                            "href": "https://api.spotify.com/v1/artists/0tFezp1okTl2MJvg8IFW22",
                            "id": "0tFezp1okTl2MJvg8IFW22",
                            "name": "Sebastian Knebel",
                            "type": "artist",
                            "uri": "spotify:artist:0tFezp1okTl2MJvg8IFW22"
                        }
                    ],
                    "available_markets": [
                        "AD",
                        "AE",
                        "AR",
                        "AT",
                        "AU",
                        "BE",
                        "BG",
                        "BH",
                        "BO",
                        "BR",
                        "CA",
                        "CH",
                        "CL",
                        "CO",
                        "CR",
                        "CY",
                        "CZ",
                        "DE",
                        "DK",
                        "DO",
                        "DZ",
                        "EC",
                        "EE",
                        "EG",
                        "ES",
                        "FI",
                        "FR",
                        "GB",
                        "GR",
                        "GT",
                        "HK",
                        "HN",
                        "HU",
                        "ID",
                        "IE",
                        "IL",
                        "IN",
                        "IS",
                        "IT",
                        "JO",
                        "JP",
                        "KW",
                        "LB",
                        "LI",
                        "LT",
                        "LU",
                        "LV",
                        "MA",
                        "MC",
                        "MT",
                        "MX",
                        "MY",
                        "NI",
                        "NL",
                        "NO",
                        "NZ",
                        "OM",
                        "PA",
                        "PE",
                        "PH",
                        "PL",
                        "PS",
                        "PT",
                        "PY",
                        "QA",
                        "RO",
                        "SA",
                        "SE",
                        "SG",
                        "SK",
                        "SV",
                        "TH",
                        "TN",
                        "TR",
                        "TW",
                        "US",
                        "UY",
                        "VN",
                        "ZA"
                    ],
                    "external_urls": {
                        "spotify": "https://open.spotify.com/album/54rkKc41noos9R6tjlanpO"
                    },
                    "href": "https://api.spotify.com/v1/albums/54rkKc41noos9R6tjlanpO",
                    "id": "54rkKc41noos9R6tjlanpO",
                    "images": [
                        {
                            "height": 640,
                            "url": "https://i.scdn.co/image/ab67616d0000b2731e8a9e90de9142ffc030993e",
                            "width": 640
                        },
                        {
                            "height": 300,
                            "url": "https://i.scdn.co/image/ab67616d00001e021e8a9e90de9142ffc030993e",
                            "width": 300
                        },
                        {
                            "height": 64,
                            "url": "https://i.scdn.co/image/ab67616d000048511e8a9e90de9142ffc030993e",
                            "width": 64
                        }
                    ],
                    "name": "Lob, Ehr und Preis sei Gott (Die schönsten deutschen Kirchenlieder)",
                    "release_date": "2013-10-11",
                    "release_date_precision": "day",
                    "total_tracks": 25,
                    "type": "album",
                    "uri": "spotify:album:54rkKc41noos9R6tjlanpO"
                },
                "artists": [
                    {
                        "external_urls": {
                            "spotify": "https://open.spotify.com/artist/38oTX62VKPKSBqUHvl12mc"
                        },
                        "href": "https://api.spotify.com/v1/artists/38oTX62VKPKSBqUHvl12mc",
                        "id": "38oTX62VKPKSBqUHvl12mc",
                        "name": "Martin Rinckart",
                        "type": "artist",
                        "uri": "spotify:artist:38oTX62VKPKSBqUHvl12mc"
                    },
                    {
                        "external_urls": {
                            "spotify": "https://open.spotify.com/artist/6Q3IpVIKPrwZt2kYfjtKNz"
                        },
                        "href": "https://api.spotify.com/v1/artists/6Q3IpVIKPrwZt2kYfjtKNz",
                        "id": "6Q3IpVIKPrwZt2kYfjtKNz",
                        "name": "Vocal Concert Dresden",
                        "type": "artist",
                        "uri": "spotify:artist:6Q3IpVIKPrwZt2kYfjtKNz"
                    },
                    {
                        "external_urls": {
                            "spotify": "https://open.spotify.com/artist/1DwDktij3whjxkVPnGc4U0"
                        },
                        "href": "https://api.spotify.com/v1/artists/1DwDktij3whjxkVPnGc4U0",
                        "id": "1DwDktij3whjxkVPnGc4U0",
                        "name": "Peter Kopp",
                        "type": "artist",
                        "uri": "spotify:artist:1DwDktij3whjxkVPnGc4U0"
                    },
                    {
                        "external_urls": {
                            "spotify": "https://open.spotify.com/artist/0tFezp1okTl2MJvg8IFW22"
                        },
                        "href": "https://api.spotify.com/v1/artists/0tFezp1okTl2MJvg8IFW22",
                        "id": "0tFezp1okTl2MJvg8IFW22",
                        "name": "Sebastian Knebel",
                        "type": "artist",
                        "uri": "spotify:artist:0tFezp1okTl2MJvg8IFW22"
                    }
                ],
                "available_markets": [
                    "AD",
                    "AE",
                    "AR",
                    "AT",
                    "AU",
                    "BE",
                    "BG",
                    "BH",
                    "BO",
                    "BR",
                    "CA",
                    "CH",
                    "CL",
                    "CO",
                    "CR",
                    "CY",
                    "CZ",
                    "DE",
                    "DK",
                    "DO",
                    "DZ",
                    "EC",
                    "EE",
                    "EG",
                    "ES",
                    "FI",
                    "FR",
                    "GB",
                    "GR",
                    "GT",
                    "HK",
                    "HN",
                    "HU",
                    "ID",
                    "IE",
                    "IL",
                    "IN",
                    "IS",
                    "IT",
                    "JO",
                    "JP",
                    "KW",
                    "LB",
                    "LI",
                    "LT",
                    "LU",
                    "LV",
                    "MA",
                    "MC",
                    "MT",
                    "MX",
                    "MY",
                    "NI",
                    "NL",
                    "NO",
                    "NZ",
                    "OM",
                    "PA",
                    "PE",
                    "PH",
                    "PL",
                    "PS",
                    "PT",
                    "PY",
                    "QA",
                    "RO",
                    "SA",
                    "SE",
                    "SG",
                    "SK",
                    "SV",
                    "TH",
                    "TN",
                    "TR",
                    "TW",
                    "US",
                    "UY",
                    "VN",
                    "ZA"
                ],
                "disc_number": 1,
                "duration_ms": 159693,
                "explicit": false,
                "external_ids": {
                    "isrc": "DES381312022"
                },
                "external_urls": {
                    "spotify": "https://open.spotify.com/track/0ygcyX8jmBWpmslDFJEvbQ"
                },
                "href": "https://api.spotify.com/v1/tracks/0ygcyX8jmBWpmslDFJEvbQ",
                "id": "0ygcyX8jmBWpmslDFJEvbQ",
                "is_local": false,
                "name": "Nun danket alle Gott",
                "popularity": 17,
                "preview_url": "https://p.scdn.co/mp3-preview/4d92398059275ae8e05fdafacec9b2f5fe42131e?cid=774b29d4f13844c495f206cafdad9c86",
                "track_number": 22,
                "type": "track",
                "uri": "spotify:track:0ygcyX8jmBWpmslDFJEvbQ"
            }
        ],
        "limit": 3,
        "next": "https://api.spotify.com/v1/search?query=knebel&type=track&offset=3&limit=3",
        "offset": 0,
        "previous": null,
        "total": 231
    }
}